import java.io.*;

public class SVGDrawTree {

  priavte String m_OutputFile;
private static FileWriter m_Out;

public SVGDrawTree(MyTreeNode n) {
screenSizeX = 1200;
screenSizeY = 440;
fontsize = 12;
  m_OutputFile = "tree.svg";
generateSVG();

private void generateSVG() {

  try {
   String outputFile = System.getProperty("user.dir") + System.getProperty("file.separator")+m_OutputFile;
   File file = new File(outputFile);
m_Out = new FileWriter(file);
j
writeFile("<?xml version=\"1.0\" standalone=\"no\"?>");
writeFile("<!DOCTYPE svg PUBLIC \"-//W3C//DTD SVG 20000303 Stylable//EN\"");
writeFile("\"http://www.w3.org/TR/2000/03/WD-SVG-20000303/STD/svg-20000303-stylable.dtd\">");
writeFile("<svg xml:space=\"preserve\"width=\""+m_ScreenSizeX+"\"height=\""+m_ScreenSizeY+"\"");
writeFile("xmlns=\"http://www.w3.org/2000/svg-20000303-stylable\"zoomAndPan=\"magnify\">");
writeFile("<g id=\"drawTree\">");
paintTree(startx, starty, fontsize...);
writeFile("</g></svg>");
m_Out.close();
}
catch() {}
}


private void writeFile(String s) {
  try {
    m_Out.write(s+"\n");
  }
  catch(IOException e) {

  }
}

private void paintTree(sdfsfdsf) {

  if is leaf()
    writeFile("<g id=\""+n.getNodeValue()+"\" transform=\"matrix(1 0 0 1 "xp+","+yp+")\"><text style=\"font-size:"+fontSize+";\">"+n.getNodeValue()+"</text></g>");
  }
  writeFile("<g id=\""+n.getNodeValue()+"edge_R\" transform=\"matrix(1 0 0 1 "+edgeX+", "+edgeY+")\"><text style=\"font-size: "+fontSize+";\">"+n.getRightEdgeWeight()+"</text></g>");
  writeFile("<g id=\""+n.getNodeValue()+"line_R\" style=\"fill:none;\"><line x1=\""+x+"\" y1=""+y+"\" x2=\""+e.X+"\" y2=\""+eY+"\" style=\"fill:none;stroke:#000000;stroke-width:1;opacity:none\"/></g>");